{
	"name": "Veronica Brandt",
	"bio": "Veronica Brandt is a mother of six with a background in computers and music. For fun she knits and finds ways to make life complicated.",
	"image": "/bio-photo.jpg",
	"weight": 1,
	"social": {
		"twitter": "veromarybrrr",
		"github": "https://www.github.com/veromary"
	}
}
